--
-- Copyright 2017, 2022 ÚHÚL
--
-- Licensed under the EUPL, Version 1.2 or – as soon they will be approved by the European Commission - subsequent versions of the EUPL (the "Licence");
-- You may not use this work except in compliance with the Licence.
-- You may obtain a copy of the Licence at:
--
-- https://joinup.ec.europa.eu/software/page/eupl
--
-- Unless required by applicable law or agreed to in writing, software distributed under the Licence is distributed on an "AS IS" basis,
-- WITHOUT WARRANTIES OR CONDITIONS OF ANY KIND, either express or implied.
-- See the Licence for the specific language governing permissions and limitations under the Licence.
--
SELECT nfiesta.fn_delete_param_area(gid)
FROM nfiesta.f_a_param_area
WHERE param_area_code = 'NFR27';
NOTICE:  Deleting t_g_betas...
NOTICE:  Deleting results.
NOTICE:  Deleting estimate configurations ({890,1107,1293}).
NOTICE:  Deleting total estimate configuration = 509.
NOTICE:  Deleting results.
NOTICE:  Deleting estimate configurations ({893,1110,1296}).
NOTICE:  Deleting total estimate configuration = 512.
NOTICE:  Deleting results.
NOTICE:  Deleting estimate configurations ({896,1299,1508,1511}).
NOTICE:  Deleting total estimate configuration = 515.
NOTICE:  Deleting auxiliary configuration = 30.
NOTICE:  Deleting cell to parametrization area mapping...
NOTICE:  Deleting plot to parametrization area mapping...
NOTICE:  Deleting parametrization area = 31.
 fn_delete_param_area 
----------------------
 
(1 row)

SELECT nfiesta.fn_create_param_area(3, estimation_cells, 'NFRDs')
FROM
	(SELECT array_agg(id) AS estimation_cells
	FROM nfiesta.c_estimation_cell
	WHERE label in ('25kmE4625N2925', '25kmE4625N2950', '25kmE4650N2900', '25kmE4650N2925', '25kmE4650N2950')) AS t1
;
 fn_create_param_area 
----------------------
                   51
(1 row)

SELECT nfiesta.fn_create_param_area(3, estimation_cells, 'NFRDs')
FROM
	(SELECT array_append(array_agg(id), 131) AS estimation_cells
	FROM nfiesta.c_estimation_cell
	WHERE label in ('25kmE4650N2925', '25kmE4650N2950')) AS t1
;
ERROR:  Estimation cell does not exist in lookup c_estimation_cell ({131})!
CONTEXT:  PL/pgSQL function nfiesta.fn_create_param_area(integer,integer[],character varying) line 18 at RAISE
