-- get all panel refyearset groups
SELECT * FROM nfiesta.fn_api_get_list_of_panel_refyearset_groups();
 id |                 label                 |              description              |   label_en    |   description_en    
----+---------------------------------------+---------------------------------------+---------------+---------------------
 29 | nejaky label                          | nejaky description                    | some label en | some description_en
 14 | no_of_panels: 1;01-01-2011-12-31-2014 | no_of_panels: 1;01-01-2011-12-31-2014 |               | 
 16 | no_of_panels: 1;01-01-2011-12-31-2014 | no_of_panels: 1;01-01-2011-12-31-2014 |               | 
 18 | no_of_panels: 1;01-01-2011-12-31-2015 | no_of_panels: 1;01-01-2011-12-31-2015 |               | 
 17 | no_of_panels: 1;01-01-2011-12-31-2015 | no_of_panels: 1;01-01-2011-12-31-2015 |               | 
 15 | no_of_panels: 1;01-01-2011-12-31-2015 | no_of_panels: 1;01-01-2011-12-31-2015 |               | 
  1 | no_of_panels: 1;{1}                   | no_of_panels: 1;{1}                   |               | 
  2 | no_of_panels: 1;{2}                   | no_of_panels: 1;{2}                   |               | 
  3 | no_of_panels: 1;{3}                   | no_of_panels: 1;{3}                   |               | 
  4 | no_of_panels: 1;{5}                   | no_of_panels: 1;{5}                   |               | 
  5 | no_of_panels: 1;{7}                   | no_of_panels: 1;{7}                   |               | 
 19 | no_of_panels: 2;01-01-2011-12-31-2014 | no_of_panels: 2;01-01-2011-12-31-2014 |               | 
 22 | no_of_panels: 2;01-01-2011-12-31-2015 | no_of_panels: 2;01-01-2011-12-31-2015 |               | 
 26 | no_of_panels: 2;01-01-2011-12-31-2015 | no_of_panels: 2;01-01-2011-12-31-2015 |               | 
 20 | no_of_panels: 2;01-01-2011-12-31-2015 | no_of_panels: 2;01-01-2011-12-31-2015 |               | 
  6 | no_of_panels: 2;{1,2}                 | no_of_panels: 2;{1,2}                 |               | 
  7 | no_of_panels: 2;{1,5}                 | no_of_panels: 2;{1,5}                 |               | 
  8 | no_of_panels: 2;{3,7}                 | no_of_panels: 2;{3,7}                 |               | 
  9 | no_of_panels: 2;{5,7}                 | no_of_panels: 2;{5,7}                 |               | 
 25 | no_of_panels: 3;01-01-2011-12-31-2015 | no_of_panels: 3;01-01-2011-12-31-2015 |               | 
 21 | no_of_panels: 3;01-01-2011-12-31-2015 | no_of_panels: 3;01-01-2011-12-31-2015 |               | 
 24 | no_of_panels: 3;01-01-2011-12-31-2015 | no_of_panels: 3;01-01-2011-12-31-2015 |               | 
 23 | no_of_panels: 3;01-01-2011-12-31-2015 | no_of_panels: 3;01-01-2011-12-31-2015 |               | 
 10 | no_of_panels: 3;{1,2,5}               | no_of_panels: 3;{1,2,5}               |               | 
 11 | no_of_panels: 3;{1,3,5}               | no_of_panels: 3;{1,3,5}               |               | 
 12 | no_of_panels: 3;{1,5,7}               | no_of_panels: 3;{1,5,7}               |               | 
 13 | no_of_panels: 3;{3,5,7}               | no_of_panels: 3;{3,5,7}               |               | 
(27 rows)


-- check db dependencies
SELECT * FROM nfiesta.fn_api_before_delete_panel_refyearset_group(NULL);
ERROR:  Error 01: fn_api_before_delete_panel_refyearset_group: Function argument _id INT must not be NULL!
CONTEXT:  PL/pgSQL function nfiesta.fn_api_before_delete_panel_refyearset_group(integer) line 5 at RAISE
SELECT * FROM nfiesta.fn_api_before_delete_panel_refyearset_group(-20);
ERROR:  Error 02: fn_api_before_delete_panel_refyearset_group: Panel with reference year set group id = -20 does not exist in table nfiesta.c_panel_refyearset_group and cannot be deleted.
CONTEXT:  PL/pgSQL function nfiesta.fn_api_before_delete_panel_refyearset_group(integer) line 9 at RAISE
SELECT * FROM nfiesta.fn_api_before_delete_panel_refyearset_group(1);
 _t_aux_conf_exi | _t_total_estimate_conf_exi 
-----------------+----------------------------
 t               | f
(1 row)

SELECT * FROM nfiesta.fn_api_before_delete_panel_refyearset_group(26);
 _t_aux_conf_exi | _t_total_estimate_conf_exi 
-----------------+----------------------------
 f               | t
(1 row)


-- delete selected panel refyearset group
SELECT * FROM nfiesta.fn_api_delete_panel_refyearset_group(NULL);
ERROR:  Error 01: fn_api_delete_panel_refyearset_group: Function argument _id INT must not be NULL!
CONTEXT:  PL/pgSQL function nfiesta.fn_api_delete_panel_refyearset_group(integer) line 5 at RAISE
SELECT * FROM nfiesta.fn_api_delete_panel_refyearset_group(-20);
ERROR:  Error 02: fn_api_delete_panel_refyearset_group: Panel with reference year set group id = -20 does not exist in table nfiesta.c_panel_refyearset_group and cannot be deleted.
CONTEXT:  PL/pgSQL function nfiesta.fn_api_delete_panel_refyearset_group(integer) line 9 at RAISE
SELECT * FROM nfiesta.fn_api_delete_panel_refyearset_group(26);
ERROR:  Error 04: fn_api_delete_panel_refyearset_group: Panel with reference year set group id = 26 is referenced from table nfiesta.t_total_estimate_conf and cannot be deleted.
CONTEXT:  PL/pgSQL function nfiesta.fn_api_delete_panel_refyearset_group(integer) line 17 at RAISE

-- update selected panel refyearset group
SELECT * FROM nfiesta.fn_api_update_panel_refyearset_group(NULL,NULL,NULL,NULL,NULL);
ERROR:  Error 01: fn_api_update_panel_refyearset_group: Function argument _id INT must not be NULL!
CONTEXT:  PL/pgSQL function nfiesta.fn_api_update_panel_refyearset_group(integer,character varying,text,character varying,text) line 6 at RAISE
SELECT * FROM nfiesta.fn_api_update_panel_refyearset_group(10,NULL,NULL,NULL,NULL);
ERROR:  Error 02: fn_api_update_panel_refyearset_group: Function argument _label VARCHAR(200) must not be NULL!
CONTEXT:  PL/pgSQL function nfiesta.fn_api_update_panel_refyearset_group(integer,character varying,text,character varying,text) line 10 at RAISE
SELECT * FROM nfiesta.fn_api_update_panel_refyearset_group(1,'no_of_panels: 1;{1}','no_of_panels: 1;{1}','new_label_en','new_description_en');
NOTICE:  Updating row in nfiesta.c_panel_refyearset_group with id = 1.
 fn_api_update_panel_refyearset_group 
--------------------------------------
 
(1 row)

SELECT * FROM nfiesta.fn_api_update_panel_refyearset_group(-20,'new_label','new_description','new_label_en','new_description_en');
ERROR:  Error 06: fn_api_update_panel_refyearset_group: Panel with reference year set group id = -20 does not exist in table nfiesta.c_panel_refyearset_group and cannot be updated.
CONTEXT:  PL/pgSQL function nfiesta.fn_api_update_panel_refyearset_group(integer,character varying,text,character varying,text) line 26 at RAISE
SELECT * FROM nfiesta.fn_api_update_panel_refyearset_group(25,'new_label_33','new_description_33','new_label_en_33','new_description_en_33');
NOTICE:  Updating row in nfiesta.c_panel_refyearset_group with id = 25.
 fn_api_update_panel_refyearset_group 
--------------------------------------
 
(1 row)

