--
-- Copyright 2017, 2022 ÚHÚL
--
-- Licensed under the EUPL, Version 1.2 or – as soon they will be approved by the European Commission - subsequent versions of the EUPL (the "Licence");
-- You may not use this work except in compliance with the Licence.
-- You may obtain a copy of the Licence at:
--
-- https://joinup.ec.europa.eu/software/page/eupl
--
-- Unless required by applicable law or agreed to in writing, software distributed under the Licence is distributed on an "AS IS" basis,
-- WITHOUT WARRANTIES OR CONDITIONS OF ANY KIND, either express or implied.
-- See the Licence for the specific language governing permissions and limitations under the Licence.
--
insert into nfiesta.t_g_beta(aux_conf, variable, cluster, val)
select conf_id, variable, cluster, val
from (
	select conf_id, clock_timestamp() as t_start, (nfiesta.fn_g_beta(conf_id)).*
	from (
		select t_aux_conf.id as conf_id, t_aux_conf.description
		from nfiesta.t_aux_conf
		order by id
	) as confs
) as est
;
INFO:  ('not able to compute inversion of matrix', [[0.0, 0.0], [0.0, 401.53417404021786]])
INFO:  ('not able to compute inversion of matrix', [[0.0, 0.0], [0.0, 1198.8580210104155]])
select aux_conf, count(*), sum(variable) as sum_r, sum(cluster) as sum_c, round(sum(val)::numeric, 10) as sum_val
from nfiesta.t_g_beta group by aux_conf
order by aux_conf
;
 aux_conf | count | sum_r |  sum_c   |   sum_val    
----------+-------+-------+----------+--------------
        1 |    64 |   352 |   133036 | 0.0050902335
        2 |    82 |   451 |   198958 | 0.0051103724
        3 |   784 |  4312 |  1878742 | 0.0050256617
        4 |   418 |  2299 |  1041686 | 0.0050550335
        5 |   444 |  2442 |   326030 | 0.0050317199
        6 |  1264 |  6952 |  3588392 | 0.0050215433
        7 |   934 |  5137 |  2738284 | 0.0050198784
        9 |   766 |  4213 |  3408738 | 0.0050322237
       10 |  1270 |  6985 |  1821292 | 0.0050063201
       11 |  1278 |  7029 |  2787594 | 0.0050480580
       12 |   196 |  1078 |   233344 | 0.0050285119
       13 |   692 |  3806 |  5217522 | 0.0050539685
       14 |  1238 |  6809 |  8094160 | 0.0050030542
       15 |  1266 |  6963 |  5303874 | 0.0050281983
       16 |  1034 |  5687 |  5176982 | 0.0050096667
       17 |    94 |   517 |   514892 | 0.0050047628
       18 |   250 |  1375 |  2462166 | 0.0050012203
       19 |  1258 |  6919 | 12447710 | 0.0049958051
       20 |  1246 |  6853 |  8211664 | 0.0050047992
       21 |   768 |  4224 |  3745160 | 0.0050047628
       23 |   292 |  1606 |  3004350 | 0.0049876631
       24 |  1074 |  5907 | 10921018 | 0.0049880554
       25 |   280 |  1540 |  2124094 | 0.0049953436
       26 |    82 |   451 |   877176 | 0.0049876631
       27 |  8014 | 44077 | 16301436 | 0.0050093402
       28 |  8964 | 49302 | 69778034 | 0.0050087688
       29 |  3944 | 21692 | 12101356 | 0.0050167567
       30 |   324 |  1782 |  1672226 | 0.0050047628
       31 |   872 |  4796 |  4473544 | 0.0050047628
       32 |  1354 |  7447 |  6045996 | 0.0050047628
       33 |   790 |  4345 |  1390792 | 0.0050158174
       34 |  1446 |  7953 |  1789564 | 0.0050109023
       35 |   334 |  1837 |  1647108 | 0.0050047628
       36 |  1844 | 10142 |  1035726 | 0.0050070424
       37 |   886 |  4873 |  6760386 | 0.0050539685
       38 |  1566 |  8613 | 11804932 | 0.0050539685
       39 |   624 |  3432 |  6384356 | 0.0049876631
       40 |   214 |  1177 |  2328352 | 0.0049876631
       41 |   820 |  4510 |  8294074 | 0.0049876631
       42 |   892 |  4906 |  8848970 | 0.0049876631
       43 |   418 |  2299 |  4531938 | 0.0049876631
       44 |   660 |  3630 |  6986152 | 0.0049876631
       45 |  2884 | 15862 | 13838874 | 0.0050047628
       46 |  4070 | 22385 |  4200080 | 0.0050021871
       47 |  2452 | 13486 | 18565318 | 0.0050539685
       48 |  3628 | 19954 | 37373842 | 0.0049876631
       49 |  3944 | 21692 | 12101356 | 0.0050167567
(47 rows)

