insert into nfiesta.t_result
	(estimate_conf, point, var, calc_started, extension_version, calc_duration, sampling_units, min_ssize, act_ssize, is_latest)
select
	estimate_conf, point, var, calc_started, extension_version, calc_duration, sampling_units, min_ssize, act_ssize, is_latest
from nfiesta.t_result
order by estimate_conf, is_latest, calc_started
limit 5;
ERROR:  duplicate key value violates unique constraint "uidx__t_result__estimate_conf"
DETAIL:  Key (estimate_conf)=(1) already exists.
update nfiesta.t_result set is_latest = false
where t_result.id in (
	select t_result.id from nfiesta.t_result
	inner join nfiesta.t_estimate_conf ON t_estimate_conf.id = t_result.estimate_conf
	inner join nfiesta.t_total_estimate_conf ON t_total_estimate_conf.id = t_estimate_conf.total_estimate_conf
	where t_total_estimate_conf.estimation_cell = 27
);
insert into nfiesta.t_result
	(estimate_conf, point, var, calc_started, extension_version, calc_duration, sampling_units, min_ssize, act_ssize, is_latest)
select
	estimate_conf, point, var, calc_started, extension_version, calc_duration, sampling_units, min_ssize, act_ssize, true as is_latest
from nfiesta.t_result AS t1
inner join nfiesta.t_estimate_conf AS t2
on t1.estimate_conf = t2.id
inner join nfiesta.t_total_estimate_conf AS t3
on t2.total_estimate_conf = t3.id
inner join nfiesta.c_estimation_cell AS t4
on t3.estimation_cell = t4.id
where t3.estimation_cell = 27
order by t3.variable, t4.label, t3.aux_conf
;
update nfiesta.t_result set point = point + 16.16
where t_result.id in (
	select t_result.id from nfiesta.t_result
	inner join nfiesta.t_estimate_conf ON t_estimate_conf.id = t_result.estimate_conf
	inner join nfiesta.t_total_estimate_conf ON t_total_estimate_conf.id = t_estimate_conf.total_estimate_conf
	where t_total_estimate_conf.estimation_cell = 27
)
and not is_latest;
select
	estimate_conf, point, var, sampling_units, min_ssize, act_ssize, is_latest
from nfiesta.t_result AS t1
inner join nfiesta.t_estimate_conf AS t2
on t1.estimate_conf = t2.id
inner join nfiesta.t_total_estimate_conf AS t3
on t2.total_estimate_conf = t3.id
inner join nfiesta.c_estimation_cell AS t4
on t3.estimation_cell = t4.id
where t3.estimation_cell = 27
order by t3.variable, t4.label, t3.aux_conf, is_latest, calc_started;
 estimate_conf |        point         |          var           |                                                                                                                                                                                                                                                                                                                                                                   sampling_units                                                                                                                                                                                                                                                                                                                                                                    | min_ssize | act_ssize | is_latest 
---------------+----------------------+------------------------+-----------------------------------------------------------------------------------------------------------------------------------------------------------------------------------------------------------------------------------------------------------------------------------------------------------------------------------------------------------------------------------------------------------------------------------------------------------------------------------------------------------------------------------------------------------------------------------------------------------------------------------------------------------------------------------------------------------------------------------------------------+-----------+-----------+-----------
           938 |    72052.50847075983 |      4662153.160522136 | [{"stratum":1,"attribute":1,"s_units_param_area":530,"s_units_cell":530,"s_units_cell_nonzero":225},{"stratum":2,"attribute":1,"s_units_param_area":84,"s_units_cell":84,"s_units_cell_nonzero":0},{"stratum":4,"attribute":1,"s_units_param_area":21,"s_units_cell":21,"s_units_cell_nonzero":0}]                                                                                                                                                                                                                                                                                                                                                                                                                                                  |        -3 |       635 | f
          1341 |   16.501394449941277 | 0.00023050357075041626 | [{"attribute_nom":1,"stratum_nom":1,"s_units_param_area_nom":530,"s_units_cell_nom":530,"s_units_cell_nonzero_nom":225,"attribute_denom":4,"stratum_denom":1,"s_units_param_area_denom":530,"s_units_cell_denom":530,"s_units_cell_nonzero_denom":530},{"attribute_nom":1,"stratum_nom":2,"s_units_param_area_nom":84,"s_units_cell_nom":84,"s_units_cell_nonzero_nom":0,"attribute_denom":4,"stratum_denom":2,"s_units_param_area_denom":84,"s_units_cell_denom":84,"s_units_cell_nonzero_denom":0},{"attribute_nom":1,"stratum_nom":4,"s_units_param_area_nom":21,"s_units_cell_nom":21,"s_units_cell_nonzero_nom":0,"attribute_denom":4,"stratum_denom":4,"s_units_param_area_denom":21,"s_units_cell_denom":21,"s_units_cell_nonzero_denom":0}] |        -3 |       635 | f
          1139 |   17.072086537241834 | 0.00024889615888559725 | [{"attribute_nom":1,"stratum_nom":1,"s_units_param_area_nom":530,"s_units_cell_nom":530,"s_units_cell_nonzero_nom":225,"attribute_denom":3,"stratum_denom":1,"s_units_param_area_denom":530,"s_units_cell_denom":530,"s_units_cell_nonzero_denom":242},{"attribute_nom":1,"stratum_nom":2,"s_units_param_area_nom":84,"s_units_cell_nom":84,"s_units_cell_nonzero_nom":0,"attribute_denom":3,"stratum_denom":2,"s_units_param_area_denom":84,"s_units_cell_denom":84,"s_units_cell_nonzero_denom":0},{"attribute_nom":1,"stratum_nom":4,"s_units_param_area_nom":21,"s_units_cell_nom":21,"s_units_cell_nonzero_nom":0,"attribute_denom":3,"stratum_denom":4,"s_units_param_area_denom":21,"s_units_cell_denom":21,"s_units_cell_nonzero_denom":0}] |        -3 |       635 | f
           938 |    72036.34847075983 |      4662153.160522136 | [{"stratum":1,"attribute":1,"s_units_param_area":530,"s_units_cell":530,"s_units_cell_nonzero":225},{"stratum":2,"attribute":1,"s_units_param_area":84,"s_units_cell":84,"s_units_cell_nonzero":0},{"stratum":4,"attribute":1,"s_units_param_area":21,"s_units_cell":21,"s_units_cell_nonzero":0}]                                                                                                                                                                                                                                                                                                                                                                                                                                                  |        -3 |       635 | t
          1341 |   0.3413944499412747 | 0.00023050357075041626 | [{"attribute_nom":1,"stratum_nom":1,"s_units_param_area_nom":530,"s_units_cell_nom":530,"s_units_cell_nonzero_nom":225,"attribute_denom":4,"stratum_denom":1,"s_units_param_area_denom":530,"s_units_cell_denom":530,"s_units_cell_nonzero_denom":530},{"attribute_nom":1,"stratum_nom":2,"s_units_param_area_nom":84,"s_units_cell_nom":84,"s_units_cell_nonzero_nom":0,"attribute_denom":4,"stratum_denom":2,"s_units_param_area_denom":84,"s_units_cell_denom":84,"s_units_cell_nonzero_denom":0},{"attribute_nom":1,"stratum_nom":4,"s_units_param_area_nom":21,"s_units_cell_nom":21,"s_units_cell_nonzero_nom":0,"attribute_denom":4,"stratum_denom":4,"s_units_param_area_denom":21,"s_units_cell_denom":21,"s_units_cell_nonzero_denom":0}] |        -3 |       635 | t
          1139 |   0.9120865372418344 | 0.00024889615888559725 | [{"attribute_nom":1,"stratum_nom":1,"s_units_param_area_nom":530,"s_units_cell_nom":530,"s_units_cell_nonzero_nom":225,"attribute_denom":3,"stratum_denom":1,"s_units_param_area_denom":530,"s_units_cell_denom":530,"s_units_cell_nonzero_denom":242},{"attribute_nom":1,"stratum_nom":2,"s_units_param_area_nom":84,"s_units_cell_nom":84,"s_units_cell_nonzero_nom":0,"attribute_denom":3,"stratum_denom":2,"s_units_param_area_denom":84,"s_units_cell_denom":84,"s_units_cell_nonzero_denom":0},{"attribute_nom":1,"stratum_nom":4,"s_units_param_area_nom":21,"s_units_cell_nom":21,"s_units_cell_nonzero_nom":0,"attribute_denom":3,"stratum_denom":4,"s_units_param_area_denom":21,"s_units_cell_denom":21,"s_units_cell_nonzero_denom":0}] |        -3 |       635 | t
           105 |    67674.66832577501 |      20402342.50878063 | [{"stratum_id":4,"stratum":"NFRD13","variable":1,"sunits_in_cell":21,"sunits_ldsity_nonzero":0},{"stratum_id":1,"stratum":"NFRD12","variable":1,"sunits_in_cell":530,"sunits_ldsity_nonzero":225},{"stratum_id":2,"stratum":"NFRD7","variable":1,"sunits_in_cell":84,"sunits_ldsity_nonzero":0}]                                                                                                                                                                                                                                                                                                                                                                                                                                                    |       688 |      5303 | f
           587 |   16.480647002854422 | 0.00031211911261128203 | [{"stratum_id":4,"stratum":"NFRD13","variable_nom":1,"variable_denom":4,"sunits_in_cell":21,"sunits_ldsity_nom_nonzero":0,"sunits_ldsity_denom_nonzero":0,"sunits_ldsity_nonzero":0},{"stratum_id":1,"stratum":"NFRD12","variable_nom":1,"variable_denom":4,"sunits_in_cell":530,"sunits_ldsity_nom_nonzero":225,"sunits_ldsity_denom_nonzero":530,"sunits_ldsity_nonzero":530},{"stratum_id":2,"stratum":"NFRD7","variable_nom":1,"variable_denom":4,"sunits_in_cell":84,"sunits_ldsity_nom_nonzero":0,"sunits_ldsity_denom_nonzero":0,"sunits_ldsity_nonzero":0}]                                                                                                                                                                                 |       140 |      5303 | f
          1540 |   17.016656616886344 |   0.002887223178444024 | [{"attribute_nom":1,"stratum_nom":1,"s_units_param_area_nom":530,"s_units_cell_nom":530,"s_units_cell_nonzero_nom":225,"attribute_denom":3,"stratum_denom":1,"s_units_param_area_denom":530,"s_units_cell_denom":530,"s_units_cell_nonzero_denom":242},{"attribute_nom":1,"stratum_nom":2,"s_units_param_area_nom":84,"s_units_cell_nom":84,"s_units_cell_nonzero_nom":0,"attribute_denom":3,"stratum_denom":2,"s_units_param_area_denom":84,"s_units_cell_denom":84,"s_units_cell_nonzero_denom":0},{"attribute_nom":1,"stratum_nom":4,"s_units_param_area_nom":21,"s_units_cell_nom":21,"s_units_cell_nonzero_nom":0,"attribute_denom":3,"stratum_denom":4,"s_units_param_area_denom":21,"s_units_cell_denom":21,"s_units_cell_nonzero_denom":0}] |        -3 |       635 | f
           105 |    67658.50832577501 |      20402342.50878063 | [{"stratum_id":4,"stratum":"NFRD13","variable":1,"sunits_in_cell":21,"sunits_ldsity_nonzero":0},{"stratum_id":1,"stratum":"NFRD12","variable":1,"sunits_in_cell":530,"sunits_ldsity_nonzero":225},{"stratum_id":2,"stratum":"NFRD7","variable":1,"sunits_in_cell":84,"sunits_ldsity_nonzero":0}]                                                                                                                                                                                                                                                                                                                                                                                                                                                    |       688 |      5303 | t
           587 |   0.3206470028544202 | 0.00031211911261128203 | [{"stratum_id":4,"stratum":"NFRD13","variable_nom":1,"variable_denom":4,"sunits_in_cell":21,"sunits_ldsity_nom_nonzero":0,"sunits_ldsity_denom_nonzero":0,"sunits_ldsity_nonzero":0},{"stratum_id":1,"stratum":"NFRD12","variable_nom":1,"variable_denom":4,"sunits_in_cell":530,"sunits_ldsity_nom_nonzero":225,"sunits_ldsity_denom_nonzero":530,"sunits_ldsity_nonzero":530},{"stratum_id":2,"stratum":"NFRD7","variable_nom":1,"variable_denom":4,"sunits_in_cell":84,"sunits_ldsity_nom_nonzero":0,"sunits_ldsity_denom_nonzero":0,"sunits_ldsity_nonzero":0}]                                                                                                                                                                                 |       140 |      5303 | t
          1540 |   0.8566566168863442 |   0.002887223178444024 | [{"attribute_nom":1,"stratum_nom":1,"s_units_param_area_nom":530,"s_units_cell_nom":530,"s_units_cell_nonzero_nom":225,"attribute_denom":3,"stratum_denom":1,"s_units_param_area_denom":530,"s_units_cell_denom":530,"s_units_cell_nonzero_denom":242},{"attribute_nom":1,"stratum_nom":2,"s_units_param_area_nom":84,"s_units_cell_nom":84,"s_units_cell_nonzero_nom":0,"attribute_denom":3,"stratum_denom":2,"s_units_param_area_denom":84,"s_units_cell_denom":84,"s_units_cell_nonzero_denom":0},{"attribute_nom":1,"stratum_nom":4,"s_units_param_area_nom":21,"s_units_cell_nom":21,"s_units_cell_nonzero_nom":0,"attribute_denom":3,"stratum_denom":4,"s_units_param_area_denom":21,"s_units_cell_denom":21,"s_units_cell_nonzero_denom":0}] |        -3 |       635 | t
           939 |     6959.54155419917 |     1596931.1381608162 | [{"stratum":1,"attribute":2,"s_units_param_area":530,"s_units_cell":530,"s_units_cell_nonzero":30},{"stratum":2,"attribute":2,"s_units_param_area":84,"s_units_cell":84,"s_units_cell_nonzero":0},{"stratum":4,"attribute":2,"s_units_param_area":21,"s_units_cell":21,"s_units_cell_nonzero":0}]                                                                                                                                                                                                                                                                                                                                                                                                                                                   |        -3 |       635 | f
          1342 |    16.19290605335708 |  3.700493303130618e-05 | [{"attribute_nom":2,"stratum_nom":1,"s_units_param_area_nom":530,"s_units_cell_nom":530,"s_units_cell_nonzero_nom":30,"attribute_denom":4,"stratum_denom":1,"s_units_param_area_denom":530,"s_units_cell_denom":530,"s_units_cell_nonzero_denom":530},{"attribute_nom":2,"stratum_nom":2,"s_units_param_area_nom":84,"s_units_cell_nom":84,"s_units_cell_nonzero_nom":0,"attribute_denom":4,"stratum_denom":2,"s_units_param_area_denom":84,"s_units_cell_denom":84,"s_units_cell_nonzero_denom":0},{"attribute_nom":2,"stratum_nom":4,"s_units_param_area_nom":21,"s_units_cell_nom":21,"s_units_cell_nonzero_nom":0,"attribute_denom":4,"stratum_denom":4,"s_units_param_area_denom":21,"s_units_cell_denom":21,"s_units_cell_nonzero_denom":0}]  |        -3 |       635 | f
          1140 |   16.247913462758167 |  0.0002488961588855975 | [{"attribute_nom":2,"stratum_nom":1,"s_units_param_area_nom":530,"s_units_cell_nom":530,"s_units_cell_nonzero_nom":30,"attribute_denom":3,"stratum_denom":1,"s_units_param_area_denom":530,"s_units_cell_denom":530,"s_units_cell_nonzero_denom":242},{"attribute_nom":2,"stratum_nom":2,"s_units_param_area_nom":84,"s_units_cell_nom":84,"s_units_cell_nonzero_nom":0,"attribute_denom":3,"stratum_denom":2,"s_units_param_area_denom":84,"s_units_cell_denom":84,"s_units_cell_nonzero_denom":0},{"attribute_nom":2,"stratum_nom":4,"s_units_param_area_nom":21,"s_units_cell_nom":21,"s_units_cell_nonzero_nom":0,"attribute_denom":3,"stratum_denom":4,"s_units_param_area_denom":21,"s_units_cell_denom":21,"s_units_cell_nonzero_denom":0}]  |        -3 |       635 | f
           939 |     6943.38155419917 |     1596931.1381608162 | [{"stratum":1,"attribute":2,"s_units_param_area":530,"s_units_cell":530,"s_units_cell_nonzero":30},{"stratum":2,"attribute":2,"s_units_param_area":84,"s_units_cell":84,"s_units_cell_nonzero":0},{"stratum":4,"attribute":2,"s_units_param_area":21,"s_units_cell":21,"s_units_cell_nonzero":0}]                                                                                                                                                                                                                                                                                                                                                                                                                                                   |        -3 |       635 | t
          1342 | 0.032906053357082604 |  3.700493303130618e-05 | [{"attribute_nom":2,"stratum_nom":1,"s_units_param_area_nom":530,"s_units_cell_nom":530,"s_units_cell_nonzero_nom":30,"attribute_denom":4,"stratum_denom":1,"s_units_param_area_denom":530,"s_units_cell_denom":530,"s_units_cell_nonzero_denom":530},{"attribute_nom":2,"stratum_nom":2,"s_units_param_area_nom":84,"s_units_cell_nom":84,"s_units_cell_nonzero_nom":0,"attribute_denom":4,"stratum_denom":2,"s_units_param_area_denom":84,"s_units_cell_denom":84,"s_units_cell_nonzero_denom":0},{"attribute_nom":2,"stratum_nom":4,"s_units_param_area_nom":21,"s_units_cell_nom":21,"s_units_cell_nonzero_nom":0,"attribute_denom":4,"stratum_denom":4,"s_units_param_area_denom":21,"s_units_cell_denom":21,"s_units_cell_nonzero_denom":0}]  |        -3 |       635 | t
          1140 |   0.0879134627581651 |  0.0002488961588855975 | [{"attribute_nom":2,"stratum_nom":1,"s_units_param_area_nom":530,"s_units_cell_nom":530,"s_units_cell_nonzero_nom":30,"attribute_denom":3,"stratum_denom":1,"s_units_param_area_denom":530,"s_units_cell_denom":530,"s_units_cell_nonzero_denom":242},{"attribute_nom":2,"stratum_nom":2,"s_units_param_area_nom":84,"s_units_cell_nom":84,"s_units_cell_nonzero_nom":0,"attribute_denom":3,"stratum_denom":2,"s_units_param_area_denom":84,"s_units_cell_denom":84,"s_units_cell_nonzero_denom":0},{"attribute_nom":2,"stratum_nom":4,"s_units_param_area_nom":21,"s_units_cell_nom":21,"s_units_cell_nonzero_nom":0,"attribute_denom":3,"stratum_denom":4,"s_units_param_area_denom":21,"s_units_cell_denom":21,"s_units_cell_nonzero_denom":0}]  |        -3 |       635 | t
           106 |    6641.473871663448 |     1551454.4286537338 | [{"stratum_id":4,"stratum":"NFRD13","variable":2,"sunits_in_cell":21,"sunits_ldsity_nonzero":0},{"stratum_id":1,"stratum":"NFRD12","variable":2,"sunits_in_cell":530,"sunits_ldsity_nonzero":30},{"stratum_id":2,"stratum":"NFRD7","variable":2,"sunits_in_cell":84,"sunits_ldsity_nonzero":0}]                                                                                                                                                                                                                                                                                                                                                                                                                                                     |      5716 |      5303 | f
           588 |     16.1913986679353 |  3.343897759312639e-05 | [{"stratum_id":4,"stratum":"NFRD13","variable_nom":2,"variable_denom":4,"sunits_in_cell":21,"sunits_ldsity_nom_nonzero":0,"sunits_ldsity_denom_nonzero":0,"sunits_ldsity_nonzero":0},{"stratum_id":1,"stratum":"NFRD12","variable_nom":2,"variable_denom":4,"sunits_in_cell":530,"sunits_ldsity_nom_nonzero":30,"sunits_ldsity_denom_nonzero":530,"sunits_ldsity_nonzero":530},{"stratum_id":2,"stratum":"NFRD7","variable_nom":2,"variable_denom":4,"sunits_in_cell":84,"sunits_ldsity_nom_nonzero":0,"sunits_ldsity_denom_nonzero":0,"sunits_ldsity_nonzero":0}]                                                                                                                                                                                  |      5061 |      5303 | f
          1541 |   16.243886256252967 | 0.00024259438442281287 | [{"attribute_nom":2,"stratum_nom":1,"s_units_param_area_nom":530,"s_units_cell_nom":530,"s_units_cell_nonzero_nom":30,"attribute_denom":3,"stratum_denom":1,"s_units_param_area_denom":530,"s_units_cell_denom":530,"s_units_cell_nonzero_denom":242},{"attribute_nom":2,"stratum_nom":2,"s_units_param_area_nom":84,"s_units_cell_nom":84,"s_units_cell_nonzero_nom":0,"attribute_denom":3,"stratum_denom":2,"s_units_param_area_denom":84,"s_units_cell_denom":84,"s_units_cell_nonzero_denom":0},{"attribute_nom":2,"stratum_nom":4,"s_units_param_area_nom":21,"s_units_cell_nom":21,"s_units_cell_nonzero_nom":0,"attribute_denom":3,"stratum_denom":4,"s_units_param_area_denom":21,"s_units_cell_denom":21,"s_units_cell_nonzero_denom":0}]  |        -3 |       635 | f
           106 |   6625.3138716634485 |     1551454.4286537338 | [{"stratum_id":4,"stratum":"NFRD13","variable":2,"sunits_in_cell":21,"sunits_ldsity_nonzero":0},{"stratum_id":1,"stratum":"NFRD12","variable":2,"sunits_in_cell":530,"sunits_ldsity_nonzero":30},{"stratum_id":2,"stratum":"NFRD7","variable":2,"sunits_in_cell":84,"sunits_ldsity_nonzero":0}]                                                                                                                                                                                                                                                                                                                                                                                                                                                     |      5716 |      5303 | t
           588 |   0.0313986679352994 |  3.343897759312639e-05 | [{"stratum_id":4,"stratum":"NFRD13","variable_nom":2,"variable_denom":4,"sunits_in_cell":21,"sunits_ldsity_nom_nonzero":0,"sunits_ldsity_denom_nonzero":0,"sunits_ldsity_nonzero":0},{"stratum_id":1,"stratum":"NFRD12","variable_nom":2,"variable_denom":4,"sunits_in_cell":530,"sunits_ldsity_nom_nonzero":30,"sunits_ldsity_denom_nonzero":530,"sunits_ldsity_nonzero":530},{"stratum_id":2,"stratum":"NFRD7","variable_nom":2,"variable_denom":4,"sunits_in_cell":84,"sunits_ldsity_nom_nonzero":0,"sunits_ldsity_denom_nonzero":0,"sunits_ldsity_nonzero":0}]                                                                                                                                                                                  |      5061 |      5303 | t
          1541 |  0.08388625625296553 | 0.00024259438442281287 | [{"attribute_nom":2,"stratum_nom":1,"s_units_param_area_nom":530,"s_units_cell_nom":530,"s_units_cell_nonzero_nom":30,"attribute_denom":3,"stratum_denom":1,"s_units_param_area_denom":530,"s_units_cell_denom":530,"s_units_cell_nonzero_denom":242},{"attribute_nom":2,"stratum_nom":2,"s_units_param_area_nom":84,"s_units_cell_nom":84,"s_units_cell_nonzero_nom":0,"attribute_denom":3,"stratum_denom":2,"s_units_param_area_denom":84,"s_units_cell_denom":84,"s_units_cell_nonzero_denom":0},{"attribute_nom":2,"stratum_nom":4,"s_units_param_area_nom":21,"s_units_cell_nom":21,"s_units_cell_nonzero_nom":0,"attribute_denom":3,"stratum_denom":4,"s_units_param_area_denom":21,"s_units_cell_denom":21,"s_units_cell_nonzero_denom":0}]  |        -3 |       635 | t
           940 |    78995.89002495904 |     3913983.2745523807 | [{"stratum":1,"attribute":3,"s_units_param_area":530,"s_units_cell":530,"s_units_cell_nonzero":242},{"stratum":2,"attribute":3,"s_units_param_area":84,"s_units_cell":84,"s_units_cell_nonzero":0},{"stratum":4,"attribute":3,"s_units_param_area":21,"s_units_cell":21,"s_units_cell_nonzero":0}]                                                                                                                                                                                                                                                                                                                                                                                                                                                  |        -3 |       635 | f
          1343 |   16.534300503298358 | 0.00023876754669531602 | [{"attribute_nom":3,"stratum_nom":1,"s_units_param_area_nom":530,"s_units_cell_nom":530,"s_units_cell_nonzero_nom":242,"attribute_denom":4,"stratum_denom":1,"s_units_param_area_denom":530,"s_units_cell_denom":530,"s_units_cell_nonzero_denom":530},{"attribute_nom":3,"stratum_nom":2,"s_units_param_area_nom":84,"s_units_cell_nom":84,"s_units_cell_nonzero_nom":0,"attribute_denom":4,"stratum_denom":2,"s_units_param_area_denom":84,"s_units_cell_denom":84,"s_units_cell_nonzero_denom":0},{"attribute_nom":3,"stratum_nom":4,"s_units_param_area_nom":21,"s_units_cell_nom":21,"s_units_cell_nonzero_nom":0,"attribute_denom":4,"stratum_denom":4,"s_units_param_area_denom":21,"s_units_cell_denom":21,"s_units_cell_nonzero_denom":0}] |        -3 |       635 | f
           940 |    78979.73002495903 |     3913983.2745523807 | [{"stratum":1,"attribute":3,"s_units_param_area":530,"s_units_cell":530,"s_units_cell_nonzero":242},{"stratum":2,"attribute":3,"s_units_param_area":84,"s_units_cell":84,"s_units_cell_nonzero":0},{"stratum":4,"attribute":3,"s_units_param_area":21,"s_units_cell":21,"s_units_cell_nonzero":0}]                                                                                                                                                                                                                                                                                                                                                                                                                                                  |        -3 |       635 | t
          1343 |   0.3743005032983575 | 0.00023876754669531602 | [{"attribute_nom":3,"stratum_nom":1,"s_units_param_area_nom":530,"s_units_cell_nom":530,"s_units_cell_nonzero_nom":242,"attribute_denom":4,"stratum_denom":1,"s_units_param_area_denom":530,"s_units_cell_denom":530,"s_units_cell_nonzero_denom":530},{"attribute_nom":3,"stratum_nom":2,"s_units_param_area_nom":84,"s_units_cell_nom":84,"s_units_cell_nonzero_nom":0,"attribute_denom":4,"stratum_denom":2,"s_units_param_area_denom":84,"s_units_cell_denom":84,"s_units_cell_nonzero_denom":0},{"attribute_nom":3,"stratum_nom":4,"s_units_param_area_nom":21,"s_units_cell_nom":21,"s_units_cell_nonzero_nom":0,"attribute_denom":4,"stratum_denom":4,"s_units_param_area_denom":21,"s_units_cell_denom":21,"s_units_cell_nonzero_denom":0}] |        -3 |       635 | t
           107 |    74299.98219743848 |       22567306.8194048 | [{"stratum_id":4,"stratum":"NFRD13","variable":3,"sunits_in_cell":21,"sunits_ldsity_nonzero":0},{"stratum_id":1,"stratum":"NFRD12","variable":3,"sunits_in_cell":530,"sunits_ldsity_nonzero":242},{"stratum_id":2,"stratum":"NFRD7","variable":3,"sunits_in_cell":84,"sunits_ldsity_nonzero":0}]                                                                                                                                                                                                                                                                                                                                                                                                                                                    |       624 |      5303 | f
           589 |    16.51204567078972 |  0.0003306641985576436 | [{"stratum_id":4,"stratum":"NFRD13","variable_nom":3,"variable_denom":4,"sunits_in_cell":21,"sunits_ldsity_nom_nonzero":0,"sunits_ldsity_denom_nonzero":0,"sunits_ldsity_nonzero":0},{"stratum_id":1,"stratum":"NFRD12","variable_nom":3,"variable_denom":4,"sunits_in_cell":530,"sunits_ldsity_nom_nonzero":242,"sunits_ldsity_denom_nonzero":530,"sunits_ldsity_nonzero":530},{"stratum_id":2,"stratum":"NFRD7","variable_nom":3,"variable_denom":4,"sunits_in_cell":84,"sunits_ldsity_nom_nonzero":0,"sunits_ldsity_denom_nonzero":0,"sunits_ldsity_nonzero":0}]                                                                                                                                                                                 |        92 |      5303 | f
           107 |    74283.82219743848 |       22567306.8194048 | [{"stratum_id":4,"stratum":"NFRD13","variable":3,"sunits_in_cell":21,"sunits_ldsity_nonzero":0},{"stratum_id":1,"stratum":"NFRD12","variable":3,"sunits_in_cell":530,"sunits_ldsity_nonzero":242},{"stratum_id":2,"stratum":"NFRD7","variable":3,"sunits_in_cell":84,"sunits_ldsity_nonzero":0}]                                                                                                                                                                                                                                                                                                                                                                                                                                                    |       624 |      5303 | t
           589 |  0.35204567078971993 |  0.0003306641985576436 | [{"stratum_id":4,"stratum":"NFRD13","variable_nom":3,"variable_denom":4,"sunits_in_cell":21,"sunits_ldsity_nom_nonzero":0,"sunits_ldsity_denom_nonzero":0,"sunits_ldsity_nonzero":0},{"stratum_id":1,"stratum":"NFRD12","variable_nom":3,"variable_denom":4,"sunits_in_cell":530,"sunits_ldsity_nom_nonzero":242,"sunits_ldsity_denom_nonzero":530,"sunits_ldsity_nonzero":530},{"stratum_id":2,"stratum":"NFRD7","variable_nom":3,"variable_denom":4,"sunits_in_cell":84,"sunits_ldsity_nom_nonzero":0,"sunits_ldsity_denom_nonzero":0,"sunits_ldsity_nonzero":0}]                                                                                                                                                                                 |        92 |      5303 | t
           108 |   211022.36845813188 |      62801449.15972644 | [{"stratum_id":4,"stratum":"NFRD13","variable":4,"sunits_in_cell":21,"sunits_ldsity_nonzero":0},{"stratum_id":1,"stratum":"NFRD12","variable":4,"sunits_in_cell":530,"sunits_ldsity_nonzero":530},{"stratum_id":2,"stratum":"NFRD7","variable":4,"sunits_in_cell":84,"sunits_ldsity_nonzero":0}]                                                                                                                                                                                                                                                                                                                                                                                                                                                    |       180 |      5303 | f
           108 |   211006.20845813188 |      62801449.15972644 | [{"stratum_id":4,"stratum":"NFRD13","variable":4,"sunits_in_cell":21,"sunits_ldsity_nonzero":0},{"stratum_id":1,"stratum":"NFRD12","variable":4,"sunits_in_cell":530,"sunits_ldsity_nonzero":530},{"stratum_id":2,"stratum":"NFRD7","variable":4,"sunits_in_cell":84,"sunits_ldsity_nonzero":0}]                                                                                                                                                                                                                                                                                                                                                                                                                                                    |       180 |      5303 | t
(34 rows)

