--
-- Copyright 2017, 2022 ÚHÚL
--
-- Licensed under the EUPL, Version 1.2 or – as soon they will be approved by the European Commission - subsequent versions of the EUPL (the "Licence");
-- You may not use this work except in compliance with the Licence.
-- You may obtain a copy of the Licence at:
--
-- https://joinup.ec.europa.eu/software/page/eupl
--
-- Unless required by applicable law or agreed to in writing, software distributed under the Licence is distributed on an "AS IS" basis,
-- WITHOUT WARRANTIES OR CONDITIONS OF ANY KIND, either express or implied.
-- See the Licence for the specific language governing permissions and limitations under the Licence.
--
WITH w_period AS (
	INSERT INTO nfiesta.c_estimation_period(estimate_date_begin, estimate_date_end, label, description)
	SELECT 
		'2011-01-01'::date as estimate_date_begin, '2015-12-31'::date as estimate_date_end,
		'NFI2', 'NFI2 cycle'
	RETURNING id
), w_data (estimation_cell, estimation_period, note, target_variable) as (
	select
		c_estimation_cell.id as estimation_cell,
		w_period.id AS estimation_period,
		''::varchar as note,
		c_target_variable.id as target_variable
	from nfiesta.c_estimation_cell, nfiesta.c_target_variable, w_period
	order by c_estimation_cell.id, c_target_variable.id
)
select nfiesta.fn_est_configuration(estimation_cell, estimation_period, note, target_variable)
from w_data;
WARNING:  fn_get_panels_in_estimation_cells: The estimation cell (id = 17) is not fully covered by sampling strata.
WARNING:  fn_get_panels_in_estimation_cells: The estimation cell (id = 17) is not fully covered by sampling strata.
WARNING:  fn_get_panels_in_estimation_cells: The estimation cell (id = 17) is not fully covered by sampling strata.
WARNING:  fn_get_panels_in_estimation_cells: The estimation cell (id = 17) is not fully covered by sampling strata.
WARNING:  fn_get_panels_in_estimation_cells: The estimation cell (id = 18) is not fully covered by sampling strata.
WARNING:  fn_get_panels_in_estimation_cells: The estimation cell (id = 18) is not fully covered by sampling strata.
WARNING:  fn_get_panels_in_estimation_cells: The estimation cell (id = 18) is not fully covered by sampling strata.
WARNING:  fn_get_panels_in_estimation_cells: The estimation cell (id = 18) is not fully covered by sampling strata.
WARNING:  fn_get_panels_in_estimation_cells: The estimation cell (id = 19) is not fully covered by sampling strata.
WARNING:  fn_get_panels_in_estimation_cells: The estimation cell (id = 19) is not fully covered by sampling strata.
WARNING:  fn_get_panels_in_estimation_cells: The estimation cell (id = 19) is not fully covered by sampling strata.
WARNING:  fn_get_panels_in_estimation_cells: The estimation cell (id = 19) is not fully covered by sampling strata.
WARNING:  fn_get_panels_in_estimation_cells: The estimation cell (id = 20) is not fully covered by sampling strata.
WARNING:  fn_get_panels_in_estimation_cells: The estimation cell (id = 20) is not fully covered by sampling strata.
WARNING:  fn_get_panels_in_estimation_cells: The estimation cell (id = 20) is not fully covered by sampling strata.
WARNING:  fn_get_panels_in_estimation_cells: The estimation cell (id = 20) is not fully covered by sampling strata.
WARNING:  fn_get_panels_in_estimation_cells: The estimation cell (id = 21) is not fully covered by sampling strata.
WARNING:  fn_get_panels_in_estimation_cells: The estimation cell (id = 21) is not fully covered by sampling strata.
WARNING:  fn_get_panels_in_estimation_cells: The estimation cell (id = 21) is not fully covered by sampling strata.
WARNING:  fn_get_panels_in_estimation_cells: The estimation cell (id = 21) is not fully covered by sampling strata.
WARNING:  fn_get_panels_in_estimation_cells: The estimation cell (id = 22) is not fully covered by sampling strata.
WARNING:  fn_get_panels_in_estimation_cells: The estimation cell (id = 22) is not fully covered by sampling strata.
WARNING:  fn_get_panels_in_estimation_cells: The estimation cell (id = 22) is not fully covered by sampling strata.
WARNING:  fn_get_panels_in_estimation_cells: The estimation cell (id = 22) is not fully covered by sampling strata.
WARNING:  fn_get_panels_in_estimation_cells: The estimation cell (id = 24) is not fully covered by sampling strata.
WARNING:  fn_get_panels_in_estimation_cells: The estimation cell (id = 24) is not fully covered by sampling strata.
WARNING:  fn_get_panels_in_estimation_cells: The estimation cell (id = 24) is not fully covered by sampling strata.
WARNING:  fn_get_panels_in_estimation_cells: The estimation cell (id = 24) is not fully covered by sampling strata.
WARNING:  fn_get_panels_in_estimation_cells: The estimation cell (id = 25) is not fully covered by sampling strata.
WARNING:  fn_get_panels_in_estimation_cells: The estimation cell (id = 25) is not fully covered by sampling strata.
WARNING:  fn_get_panels_in_estimation_cells: The estimation cell (id = 25) is not fully covered by sampling strata.
WARNING:  fn_get_panels_in_estimation_cells: The estimation cell (id = 25) is not fully covered by sampling strata.
WARNING:  fn_get_panels_in_estimation_cells: The estimation cell (id = 26) is not fully covered by sampling strata.
WARNING:  fn_get_panels_in_estimation_cells: The estimation cell (id = 26) is not fully covered by sampling strata.
WARNING:  fn_get_panels_in_estimation_cells: The estimation cell (id = 26) is not fully covered by sampling strata.
WARNING:  fn_get_panels_in_estimation_cells: The estimation cell (id = 26) is not fully covered by sampling strata.
WARNING:  fn_get_panels_in_estimation_cells: The estimation cell (id = 29) is not fully covered by sampling strata.
WARNING:  fn_get_panels_in_estimation_cells: The estimation cell (id = 29) is not fully covered by sampling strata.
WARNING:  fn_get_panels_in_estimation_cells: The estimation cell (id = 29) is not fully covered by sampling strata.
WARNING:  fn_get_panels_in_estimation_cells: The estimation cell (id = 29) is not fully covered by sampling strata.
WARNING:  fn_get_panels_in_estimation_cells: The estimation cell (id = 30) is not fully covered by sampling strata.
WARNING:  fn_get_panels_in_estimation_cells: The estimation cell (id = 30) is not fully covered by sampling strata.
WARNING:  fn_get_panels_in_estimation_cells: The estimation cell (id = 30) is not fully covered by sampling strata.
WARNING:  fn_get_panels_in_estimation_cells: The estimation cell (id = 30) is not fully covered by sampling strata.
WARNING:  fn_get_panels_in_estimation_cells: The estimation cell (id = 33) is not fully covered by sampling strata.
WARNING:  fn_get_panels_in_estimation_cells: The estimation cell (id = 33) is not fully covered by sampling strata.
WARNING:  fn_get_panels_in_estimation_cells: The estimation cell (id = 33) is not fully covered by sampling strata.
WARNING:  fn_get_panels_in_estimation_cells: The estimation cell (id = 33) is not fully covered by sampling strata.
WARNING:  fn_get_panels_in_estimation_cells: The estimation cell (id = 34) is not fully covered by sampling strata.
WARNING:  fn_get_panels_in_estimation_cells: The estimation cell (id = 34) is not fully covered by sampling strata.
WARNING:  fn_get_panels_in_estimation_cells: The estimation cell (id = 34) is not fully covered by sampling strata.
WARNING:  fn_get_panels_in_estimation_cells: The estimation cell (id = 34) is not fully covered by sampling strata.
WARNING:  fn_get_panels_in_estimation_cells: The estimation cell (id = 35) is not fully covered by sampling strata.
WARNING:  fn_get_panels_in_estimation_cells: The estimation cell (id = 35) is not fully covered by sampling strata.
WARNING:  fn_get_panels_in_estimation_cells: The estimation cell (id = 35) is not fully covered by sampling strata.
WARNING:  fn_get_panels_in_estimation_cells: The estimation cell (id = 35) is not fully covered by sampling strata.
WARNING:  fn_get_panels_in_estimation_cells: The estimation cell (id = 36) is not fully covered by sampling strata.
WARNING:  fn_get_panels_in_estimation_cells: The estimation cell (id = 36) is not fully covered by sampling strata.
WARNING:  fn_get_panels_in_estimation_cells: The estimation cell (id = 36) is not fully covered by sampling strata.
WARNING:  fn_get_panels_in_estimation_cells: The estimation cell (id = 36) is not fully covered by sampling strata.
WARNING:  fn_get_panels_in_estimation_cells: The estimation cell (id = 38) is not fully covered by sampling strata.
WARNING:  fn_get_panels_in_estimation_cells: The estimation cell (id = 38) is not fully covered by sampling strata.
WARNING:  fn_get_panels_in_estimation_cells: The estimation cell (id = 38) is not fully covered by sampling strata.
WARNING:  fn_get_panels_in_estimation_cells: The estimation cell (id = 38) is not fully covered by sampling strata.
WARNING:  fn_get_panels_in_estimation_cells: The estimation cell (id = 39) is not fully covered by sampling strata.
WARNING:  fn_get_panels_in_estimation_cells: The estimation cell (id = 39) is not fully covered by sampling strata.
WARNING:  fn_get_panels_in_estimation_cells: The estimation cell (id = 39) is not fully covered by sampling strata.
WARNING:  fn_get_panels_in_estimation_cells: The estimation cell (id = 39) is not fully covered by sampling strata.
WARNING:  fn_get_panels_in_estimation_cells: The estimation cell (id = 40) is not fully covered by sampling strata.
WARNING:  fn_get_panels_in_estimation_cells: The estimation cell (id = 40) is not fully covered by sampling strata.
WARNING:  fn_get_panels_in_estimation_cells: The estimation cell (id = 40) is not fully covered by sampling strata.
WARNING:  fn_get_panels_in_estimation_cells: The estimation cell (id = 40) is not fully covered by sampling strata.
WARNING:  fn_get_panels_in_estimation_cells: The estimation cell (id = 41) is not fully covered by sampling strata.
WARNING:  fn_get_panels_in_estimation_cells: The estimation cell (id = 41) is not fully covered by sampling strata.
WARNING:  fn_get_panels_in_estimation_cells: The estimation cell (id = 41) is not fully covered by sampling strata.
WARNING:  fn_get_panels_in_estimation_cells: The estimation cell (id = 41) is not fully covered by sampling strata.
WARNING:  fn_get_panels_in_estimation_cells: The estimation cell (id = 42) is not fully covered by sampling strata.
WARNING:  fn_get_panels_in_estimation_cells: The estimation cell (id = 42) is not fully covered by sampling strata.
WARNING:  fn_get_panels_in_estimation_cells: The estimation cell (id = 42) is not fully covered by sampling strata.
WARNING:  fn_get_panels_in_estimation_cells: The estimation cell (id = 42) is not fully covered by sampling strata.
WARNING:  fn_get_panels_in_estimation_cells: The estimation cell (id = 43) is not fully covered by sampling strata.
WARNING:  fn_get_panels_in_estimation_cells: The estimation cell (id = 43) is not fully covered by sampling strata.
WARNING:  fn_get_panels_in_estimation_cells: The estimation cell (id = 43) is not fully covered by sampling strata.
WARNING:  fn_get_panels_in_estimation_cells: The estimation cell (id = 43) is not fully covered by sampling strata.
WARNING:  fn_get_panels_in_estimation_cells: The estimation cell (id = 44) is not fully covered by sampling strata.
WARNING:  fn_get_panels_in_estimation_cells: The estimation cell (id = 44) is not fully covered by sampling strata.
WARNING:  fn_get_panels_in_estimation_cells: The estimation cell (id = 44) is not fully covered by sampling strata.
WARNING:  fn_get_panels_in_estimation_cells: The estimation cell (id = 44) is not fully covered by sampling strata.
WARNING:  fn_get_panels_in_estimation_cells: The estimation cell (id = 45) is not fully covered by sampling strata.
WARNING:  fn_get_panels_in_estimation_cells: The estimation cell (id = 45) is not fully covered by sampling strata.
WARNING:  fn_get_panels_in_estimation_cells: The estimation cell (id = 45) is not fully covered by sampling strata.
WARNING:  fn_get_panels_in_estimation_cells: The estimation cell (id = 45) is not fully covered by sampling strata.
WARNING:  fn_get_panels_in_estimation_cells: The estimation cell (id = 46) is not fully covered by sampling strata.
WARNING:  fn_get_panels_in_estimation_cells: The estimation cell (id = 46) is not fully covered by sampling strata.
WARNING:  fn_get_panels_in_estimation_cells: The estimation cell (id = 46) is not fully covered by sampling strata.
WARNING:  fn_get_panels_in_estimation_cells: The estimation cell (id = 46) is not fully covered by sampling strata.
WARNING:  fn_get_panels_in_estimation_cells: The estimation cell (id = 47) is not fully covered by sampling strata.
WARNING:  fn_get_panels_in_estimation_cells: The estimation cell (id = 47) is not fully covered by sampling strata.
WARNING:  fn_get_panels_in_estimation_cells: The estimation cell (id = 47) is not fully covered by sampling strata.
WARNING:  fn_get_panels_in_estimation_cells: The estimation cell (id = 47) is not fully covered by sampling strata.
WARNING:  fn_get_panels_in_estimation_cells: The estimation cell (id = 48) is not fully covered by sampling strata.
WARNING:  fn_get_panels_in_estimation_cells: The estimation cell (id = 48) is not fully covered by sampling strata.
WARNING:  fn_get_panels_in_estimation_cells: The estimation cell (id = 48) is not fully covered by sampling strata.
WARNING:  fn_get_panels_in_estimation_cells: The estimation cell (id = 48) is not fully covered by sampling strata.
WARNING:  fn_get_panels_in_estimation_cells: The estimation cell (id = 49) is not fully covered by sampling strata.
WARNING:  fn_get_panels_in_estimation_cells: The estimation cell (id = 49) is not fully covered by sampling strata.
WARNING:  fn_get_panels_in_estimation_cells: The estimation cell (id = 49) is not fully covered by sampling strata.
WARNING:  fn_get_panels_in_estimation_cells: The estimation cell (id = 49) is not fully covered by sampling strata.
WARNING:  fn_get_panels_in_estimation_cells: The estimation cell (id = 50) is not fully covered by sampling strata.
WARNING:  fn_get_panels_in_estimation_cells: The estimation cell (id = 50) is not fully covered by sampling strata.
WARNING:  fn_get_panels_in_estimation_cells: The estimation cell (id = 50) is not fully covered by sampling strata.
WARNING:  fn_get_panels_in_estimation_cells: The estimation cell (id = 50) is not fully covered by sampling strata.
WARNING:  fn_get_panels_in_estimation_cells: The estimation cell (id = 52) is not fully covered by sampling strata.
WARNING:  fn_get_panels_in_estimation_cells: The estimation cell (id = 52) is not fully covered by sampling strata.
WARNING:  fn_get_panels_in_estimation_cells: The estimation cell (id = 52) is not fully covered by sampling strata.
WARNING:  fn_get_panels_in_estimation_cells: The estimation cell (id = 52) is not fully covered by sampling strata.
WARNING:  fn_get_panels_in_estimation_cells: The estimation cell (id = 53) is not fully covered by sampling strata.
WARNING:  fn_get_panels_in_estimation_cells: The estimation cell (id = 53) is not fully covered by sampling strata.
WARNING:  fn_get_panels_in_estimation_cells: The estimation cell (id = 53) is not fully covered by sampling strata.
WARNING:  fn_get_panels_in_estimation_cells: The estimation cell (id = 53) is not fully covered by sampling strata.
WARNING:  fn_get_panels_in_estimation_cells: The estimation cell (id = 54) is not fully covered by sampling strata.
WARNING:  fn_get_panels_in_estimation_cells: The estimation cell (id = 54) is not fully covered by sampling strata.
WARNING:  fn_get_panels_in_estimation_cells: The estimation cell (id = 54) is not fully covered by sampling strata.
WARNING:  fn_get_panels_in_estimation_cells: The estimation cell (id = 54) is not fully covered by sampling strata.
WARNING:  fn_get_panels_in_estimation_cells: The estimation cell (id = 57) is not fully covered by sampling strata.
WARNING:  fn_get_panels_in_estimation_cells: The estimation cell (id = 57) is not fully covered by sampling strata.
WARNING:  fn_get_panels_in_estimation_cells: The estimation cell (id = 57) is not fully covered by sampling strata.
WARNING:  fn_get_panels_in_estimation_cells: The estimation cell (id = 57) is not fully covered by sampling strata.
WARNING:  fn_get_panels_in_estimation_cells: The estimation cell (id = 58) is not fully covered by sampling strata.
WARNING:  fn_get_panels_in_estimation_cells: The estimation cell (id = 58) is not fully covered by sampling strata.
WARNING:  fn_get_panels_in_estimation_cells: The estimation cell (id = 58) is not fully covered by sampling strata.
WARNING:  fn_get_panels_in_estimation_cells: The estimation cell (id = 58) is not fully covered by sampling strata.
WARNING:  fn_get_panels_in_estimation_cells: The estimation cell (id = 59) is not fully covered by sampling strata.
WARNING:  fn_get_panels_in_estimation_cells: The estimation cell (id = 59) is not fully covered by sampling strata.
WARNING:  fn_get_panels_in_estimation_cells: The estimation cell (id = 59) is not fully covered by sampling strata.
WARNING:  fn_get_panels_in_estimation_cells: The estimation cell (id = 59) is not fully covered by sampling strata.
WARNING:  fn_get_panels_in_estimation_cells: The estimation cell (id = 63) is not fully covered by sampling strata.
WARNING:  fn_get_panels_in_estimation_cells: The estimation cell (id = 63) is not fully covered by sampling strata.
WARNING:  fn_get_panels_in_estimation_cells: The estimation cell (id = 63) is not fully covered by sampling strata.
WARNING:  fn_get_panels_in_estimation_cells: The estimation cell (id = 63) is not fully covered by sampling strata.
WARNING:  fn_get_panels_in_estimation_cells: The estimation cell (id = 64) is not fully covered by sampling strata.
WARNING:  fn_get_panels_in_estimation_cells: The estimation cell (id = 64) is not fully covered by sampling strata.
WARNING:  fn_get_panels_in_estimation_cells: The estimation cell (id = 64) is not fully covered by sampling strata.
WARNING:  fn_get_panels_in_estimation_cells: The estimation cell (id = 64) is not fully covered by sampling strata.
WARNING:  fn_get_panels_in_estimation_cells: The estimation cell (id = 65) is not fully covered by sampling strata.
WARNING:  fn_get_panels_in_estimation_cells: The estimation cell (id = 65) is not fully covered by sampling strata.
WARNING:  fn_get_panels_in_estimation_cells: The estimation cell (id = 65) is not fully covered by sampling strata.
WARNING:  fn_get_panels_in_estimation_cells: The estimation cell (id = 65) is not fully covered by sampling strata.
WARNING:  fn_get_panels_in_estimation_cells: The estimation cell (id = 66) is not fully covered by sampling strata.
WARNING:  fn_get_panels_in_estimation_cells: The estimation cell (id = 66) is not fully covered by sampling strata.
WARNING:  fn_get_panels_in_estimation_cells: The estimation cell (id = 66) is not fully covered by sampling strata.
WARNING:  fn_get_panels_in_estimation_cells: The estimation cell (id = 66) is not fully covered by sampling strata.
WARNING:  fn_get_panels_in_estimation_cells: The estimation cell (id = 71) is not fully covered by sampling strata.
WARNING:  fn_get_panels_in_estimation_cells: The estimation cell (id = 71) is not fully covered by sampling strata.
WARNING:  fn_get_panels_in_estimation_cells: The estimation cell (id = 71) is not fully covered by sampling strata.
WARNING:  fn_get_panels_in_estimation_cells: The estimation cell (id = 71) is not fully covered by sampling strata.
WARNING:  fn_get_panels_in_estimation_cells: The estimation cell (id = 72) is not fully covered by sampling strata.
WARNING:  fn_get_panels_in_estimation_cells: The estimation cell (id = 72) is not fully covered by sampling strata.
WARNING:  fn_get_panels_in_estimation_cells: The estimation cell (id = 72) is not fully covered by sampling strata.
WARNING:  fn_get_panels_in_estimation_cells: The estimation cell (id = 72) is not fully covered by sampling strata.
WARNING:  fn_get_panels_in_estimation_cells: The estimation cell (id = 78) is not fully covered by sampling strata.
WARNING:  fn_get_panels_in_estimation_cells: The estimation cell (id = 78) is not fully covered by sampling strata.
WARNING:  fn_get_panels_in_estimation_cells: The estimation cell (id = 78) is not fully covered by sampling strata.
WARNING:  fn_get_panels_in_estimation_cells: The estimation cell (id = 78) is not fully covered by sampling strata.
WARNING:  fn_get_panels_in_estimation_cells: The estimation cell (id = 79) is not fully covered by sampling strata.
WARNING:  fn_get_panels_in_estimation_cells: The estimation cell (id = 79) is not fully covered by sampling strata.
WARNING:  fn_get_panels_in_estimation_cells: The estimation cell (id = 79) is not fully covered by sampling strata.
WARNING:  fn_get_panels_in_estimation_cells: The estimation cell (id = 79) is not fully covered by sampling strata.
WARNING:  fn_get_panels_in_estimation_cells: The estimation cell (id = 80) is not fully covered by sampling strata.
WARNING:  fn_get_panels_in_estimation_cells: The estimation cell (id = 80) is not fully covered by sampling strata.
WARNING:  fn_get_panels_in_estimation_cells: The estimation cell (id = 80) is not fully covered by sampling strata.
WARNING:  fn_get_panels_in_estimation_cells: The estimation cell (id = 80) is not fully covered by sampling strata.
WARNING:  fn_get_panels_in_estimation_cells: The estimation cell (id = 85) is not fully covered by sampling strata.
WARNING:  fn_get_panels_in_estimation_cells: The estimation cell (id = 85) is not fully covered by sampling strata.
WARNING:  fn_get_panels_in_estimation_cells: The estimation cell (id = 85) is not fully covered by sampling strata.
WARNING:  fn_get_panels_in_estimation_cells: The estimation cell (id = 85) is not fully covered by sampling strata.
WARNING:  fn_get_panels_in_estimation_cells: The estimation cell (id = 86) is not fully covered by sampling strata.
WARNING:  fn_get_panels_in_estimation_cells: The estimation cell (id = 86) is not fully covered by sampling strata.
WARNING:  fn_get_panels_in_estimation_cells: The estimation cell (id = 86) is not fully covered by sampling strata.
WARNING:  fn_get_panels_in_estimation_cells: The estimation cell (id = 86) is not fully covered by sampling strata.
WARNING:  fn_get_panels_in_estimation_cells: The estimation cell (id = 87) is not fully covered by sampling strata.
WARNING:  fn_get_panels_in_estimation_cells: The estimation cell (id = 87) is not fully covered by sampling strata.
WARNING:  fn_get_panels_in_estimation_cells: The estimation cell (id = 87) is not fully covered by sampling strata.
WARNING:  fn_get_panels_in_estimation_cells: The estimation cell (id = 87) is not fully covered by sampling strata.
WARNING:  fn_get_panels_in_estimation_cells: The estimation cell (id = 88) is not fully covered by sampling strata.
WARNING:  fn_get_panels_in_estimation_cells: The estimation cell (id = 88) is not fully covered by sampling strata.
WARNING:  fn_get_panels_in_estimation_cells: The estimation cell (id = 88) is not fully covered by sampling strata.
WARNING:  fn_get_panels_in_estimation_cells: The estimation cell (id = 88) is not fully covered by sampling strata.
WARNING:  fn_get_panels_in_estimation_cells: The estimation cell (id = 89) is not fully covered by sampling strata.
WARNING:  fn_get_panels_in_estimation_cells: The estimation cell (id = 89) is not fully covered by sampling strata.
WARNING:  fn_get_panels_in_estimation_cells: The estimation cell (id = 89) is not fully covered by sampling strata.
WARNING:  fn_get_panels_in_estimation_cells: The estimation cell (id = 89) is not fully covered by sampling strata.
WARNING:  fn_get_panels_in_estimation_cells: The estimation cell (id = 95) is not fully covered by sampling strata.
WARNING:  fn_get_panels_in_estimation_cells: The estimation cell (id = 95) is not fully covered by sampling strata.
WARNING:  fn_get_panels_in_estimation_cells: The estimation cell (id = 95) is not fully covered by sampling strata.
WARNING:  fn_get_panels_in_estimation_cells: The estimation cell (id = 95) is not fully covered by sampling strata.
WARNING:  fn_get_panels_in_estimation_cells: The estimation cell (id = 96) is not fully covered by sampling strata.
WARNING:  fn_get_panels_in_estimation_cells: The estimation cell (id = 96) is not fully covered by sampling strata.
WARNING:  fn_get_panels_in_estimation_cells: The estimation cell (id = 96) is not fully covered by sampling strata.
WARNING:  fn_get_panels_in_estimation_cells: The estimation cell (id = 96) is not fully covered by sampling strata.
WARNING:  fn_get_panels_in_estimation_cells: The estimation cell (id = 97) is not fully covered by sampling strata.
WARNING:  fn_get_panels_in_estimation_cells: The estimation cell (id = 97) is not fully covered by sampling strata.
WARNING:  fn_get_panels_in_estimation_cells: The estimation cell (id = 97) is not fully covered by sampling strata.
WARNING:  fn_get_panels_in_estimation_cells: The estimation cell (id = 97) is not fully covered by sampling strata.
WARNING:  fn_get_panels_in_estimation_cells: The estimation cell (id = 103) is not fully covered by sampling strata.
WARNING:  fn_get_panels_in_estimation_cells: The estimation cell (id = 103) is not fully covered by sampling strata.
WARNING:  fn_get_panels_in_estimation_cells: The estimation cell (id = 103) is not fully covered by sampling strata.
WARNING:  fn_get_panels_in_estimation_cells: The estimation cell (id = 103) is not fully covered by sampling strata.
WARNING:  fn_get_panels_in_estimation_cells: The estimation cell (id = 104) is not fully covered by sampling strata.
WARNING:  fn_get_panels_in_estimation_cells: The estimation cell (id = 104) is not fully covered by sampling strata.
WARNING:  fn_get_panels_in_estimation_cells: The estimation cell (id = 104) is not fully covered by sampling strata.
WARNING:  fn_get_panels_in_estimation_cells: The estimation cell (id = 104) is not fully covered by sampling strata.
WARNING:  fn_get_panels_in_estimation_cells: The estimation cell (id = 105) is not fully covered by sampling strata.
WARNING:  fn_get_panels_in_estimation_cells: The estimation cell (id = 105) is not fully covered by sampling strata.
WARNING:  fn_get_panels_in_estimation_cells: The estimation cell (id = 105) is not fully covered by sampling strata.
WARNING:  fn_get_panels_in_estimation_cells: The estimation cell (id = 105) is not fully covered by sampling strata.
WARNING:  fn_get_panels_in_estimation_cells: The estimation cell (id = 106) is not fully covered by sampling strata.
WARNING:  fn_get_panels_in_estimation_cells: The estimation cell (id = 106) is not fully covered by sampling strata.
WARNING:  fn_get_panels_in_estimation_cells: The estimation cell (id = 106) is not fully covered by sampling strata.
WARNING:  fn_get_panels_in_estimation_cells: The estimation cell (id = 106) is not fully covered by sampling strata.
WARNING:  fn_get_panels_in_estimation_cells: The estimation cell (id = 110) is not fully covered by sampling strata.
WARNING:  fn_get_panels_in_estimation_cells: The estimation cell (id = 110) is not fully covered by sampling strata.
WARNING:  fn_get_panels_in_estimation_cells: The estimation cell (id = 110) is not fully covered by sampling strata.
WARNING:  fn_get_panels_in_estimation_cells: The estimation cell (id = 110) is not fully covered by sampling strata.
WARNING:  fn_get_panels_in_estimation_cells: The estimation cell (id = 111) is not fully covered by sampling strata.
WARNING:  fn_get_panels_in_estimation_cells: The estimation cell (id = 111) is not fully covered by sampling strata.
WARNING:  fn_get_panels_in_estimation_cells: The estimation cell (id = 111) is not fully covered by sampling strata.
WARNING:  fn_get_panels_in_estimation_cells: The estimation cell (id = 111) is not fully covered by sampling strata.
WARNING:  fn_get_panels_in_estimation_cells: The estimation cell (id = 112) is not fully covered by sampling strata.
WARNING:  fn_get_panels_in_estimation_cells: The estimation cell (id = 112) is not fully covered by sampling strata.
WARNING:  fn_get_panels_in_estimation_cells: The estimation cell (id = 112) is not fully covered by sampling strata.
WARNING:  fn_get_panels_in_estimation_cells: The estimation cell (id = 112) is not fully covered by sampling strata.
WARNING:  fn_get_panels_in_estimation_cells: The estimation cell (id = 113) is not fully covered by sampling strata.
WARNING:  fn_get_panels_in_estimation_cells: The estimation cell (id = 113) is not fully covered by sampling strata.
WARNING:  fn_get_panels_in_estimation_cells: The estimation cell (id = 113) is not fully covered by sampling strata.
WARNING:  fn_get_panels_in_estimation_cells: The estimation cell (id = 113) is not fully covered by sampling strata.
WARNING:  fn_get_panels_in_estimation_cells: The estimation cell (id = 116) is not fully covered by sampling strata.
WARNING:  fn_get_panels_in_estimation_cells: The estimation cell (id = 116) is not fully covered by sampling strata.
WARNING:  fn_get_panels_in_estimation_cells: The estimation cell (id = 116) is not fully covered by sampling strata.
WARNING:  fn_get_panels_in_estimation_cells: The estimation cell (id = 116) is not fully covered by sampling strata.
WARNING:  fn_get_panels_in_estimation_cells: The estimation cell (id = 117) is not fully covered by sampling strata.
WARNING:  fn_get_panels_in_estimation_cells: The estimation cell (id = 117) is not fully covered by sampling strata.
WARNING:  fn_get_panels_in_estimation_cells: The estimation cell (id = 117) is not fully covered by sampling strata.
WARNING:  fn_get_panels_in_estimation_cells: The estimation cell (id = 117) is not fully covered by sampling strata.
WARNING:  fn_get_panels_in_estimation_cells: The estimation cell (id = 118) is not fully covered by sampling strata.
WARNING:  fn_get_panels_in_estimation_cells: The estimation cell (id = 118) is not fully covered by sampling strata.
WARNING:  fn_get_panels_in_estimation_cells: The estimation cell (id = 118) is not fully covered by sampling strata.
WARNING:  fn_get_panels_in_estimation_cells: The estimation cell (id = 118) is not fully covered by sampling strata.
WARNING:  fn_get_panels_in_estimation_cells: The estimation cell (id = 119) is not fully covered by sampling strata.
WARNING:  fn_get_panels_in_estimation_cells: The estimation cell (id = 119) is not fully covered by sampling strata.
WARNING:  fn_get_panels_in_estimation_cells: The estimation cell (id = 119) is not fully covered by sampling strata.
WARNING:  fn_get_panels_in_estimation_cells: The estimation cell (id = 119) is not fully covered by sampling strata.
WARNING:  fn_get_panels_in_estimation_cells: The estimation cell (id = 120) is not fully covered by sampling strata.
WARNING:  fn_get_panels_in_estimation_cells: The estimation cell (id = 120) is not fully covered by sampling strata.
WARNING:  fn_get_panels_in_estimation_cells: The estimation cell (id = 120) is not fully covered by sampling strata.
WARNING:  fn_get_panels_in_estimation_cells: The estimation cell (id = 120) is not fully covered by sampling strata.
WARNING:  fn_get_panels_in_estimation_cells: The estimation cell (id = 121) is not fully covered by sampling strata.
WARNING:  fn_get_panels_in_estimation_cells: The estimation cell (id = 121) is not fully covered by sampling strata.
WARNING:  fn_get_panels_in_estimation_cells: The estimation cell (id = 121) is not fully covered by sampling strata.
WARNING:  fn_get_panels_in_estimation_cells: The estimation cell (id = 121) is not fully covered by sampling strata.
WARNING:  fn_get_panels_in_estimation_cells: The estimation cell (id = 122) is not fully covered by sampling strata.
WARNING:  fn_get_panels_in_estimation_cells: The estimation cell (id = 122) is not fully covered by sampling strata.
WARNING:  fn_get_panels_in_estimation_cells: The estimation cell (id = 122) is not fully covered by sampling strata.
WARNING:  fn_get_panels_in_estimation_cells: The estimation cell (id = 122) is not fully covered by sampling strata.
 fn_est_configuration 
----------------------
                    1
                    2
                    3
                    4
                    5
                    6
                    7
                    8
                    9
                   10
                   11
                   12
                   13
                   14
                   15
                   16
                   17
                   18
                   19
                   20
                   21
                   22
                   23
                   24
                   25
                   26
                   27
                   28
                   29
                   30
                   31
                   32
                   33
                   34
                   35
                   36
                   37
                   38
                   39
                   40
                   41
                   42
                   43
                   44
                   45
                   46
                   47
                   48
                   49
                   50
                   51
                   52
                   53
                   54
                   55
                   56
                   57
                   58
                   59
                   60
                   61
                   62
                   63
                   64
                   65
                   66
                   67
                   68
                   69
                   70
                   71
                   72
                   73
                   74
                   75
                   76
                   77
                   78
                   79
                   80
                   81
                   82
                   83
                   84
                   85
                   86
                   87
                   88
                   89
                   90
                   91
                   92
                   93
                   94
                   95
                   96
                   97
                   98
                   99
                  100
                  101
                  102
                  103
                  104
                  105
                  106
                  107
                  108
                  109
                  110
                  111
                  112
                  113
                  114
                  115
                  116
                  117
                  118
                  119
                  120
                  121
                  122
                  123
                  124
                  125
                  126
                  127
                  128
                  129
                  130
                  131
                  132
                  133
                  134
                  135
                  136
                  137
                  138
                  139
                  140
                  141
                  142
                  143
                  144
                  145
                  146
                  147
                  148
                  149
                  150
                  151
                  152
                  153
                  154
                  155
                  156
                  157
                  158
                  159
                  160
                  161
                  162
                  163
                  164
                  165
                  166
                  167
                  168
                  169
                  170
                  171
                  172
                  173
                  174
                  175
                  176
                  177
                  178
                  179
                  180
                  181
                  182
                  183
                  184
                  185
                  186
                  187
                  188
                  189
                  190
                  191
                  192
                  193
                  194
                  195
                  196
                  197
                  198
                  199
                  200
                  201
                  202
                  203
                  204
                  205
                  206
                  207
                  208
                  209
                  210
                  211
                  212
                  213
                  214
                  215
                  216
                  217
                  218
                  219
                  220
                  221
                  222
                  223
                  224
                  225
                  226
                  227
                  228
                  229
                  230
                  231
                  232
                  233
                  234
                  235
                  236
                  237
                  238
                  239
                  240
                  241
                  242
                  243
                  244
                  245
                  246
                  247
                  248
                  249
                  250
                  251
                  252
                  253
                  254
                  255
                  256
                  257
                  258
                  259
                  260
                  261
                  262
                  263
                  264
                  265
                  266
                  267
                  268
                  269
                  270
                  271
                  272
                  273
                  274
                  275
                  276
                  277
                  278
                  279
                  280
                  281
                  282
                  283
                  284
                  285
                  286
                  287
                  288
                  289
                  290
                  291
                  292
                  293
                  294
                  295
                  296
                  297
                  298
                  299
                  300
                  301
                  302
                  303
                  304
                  305
                  306
                  307
                  308
                  309
                  310
                  311
                  312
                  313
                  314
                  315
                  316
                  317
                  318
                  319
                  320
                  321
                  322
                  323
                  324
                  325
                  326
                  327
                  328
                  329
                  330
                  331
                  332
                  333
                  334
                  335
                  336
                  337
                  338
                  339
                  340
                  341
                  342
                  343
                  344
                  345
                  346
                  347
                  348
                  349
                  350
                  351
                  352
                  353
                  354
                  355
                  356
                  357
                  358
                  359
                  360
                  361
                  362
                  363
                  364
                  365
                  366
                  367
                  368
                  369
                  370
                  371
                  372
                  373
                  374
                  375
                  376
                  377
                  378
                  379
                  380
                  381
                  382
                  383
                  384
                  385
                  386
                  387
                  388
                  389
                  390
                  391
                  392
                  393
                  394
                  395
                  396
                  397
                  398
                  399
                  400
                  401
                  402
                  403
                  404
                  405
                  406
                  407
                  408
                  409
                  410
                  411
                  412
                  413
                  414
                  415
                  416
                  417
                  418
                  419
                  420
                  421
                  422
                  423
                  424
                  425
                  426
                  427
                  428
                  429
                  430
                  431
                  432
                  433
                  434
                  435
                  436
                  437
                  438
                  439
                  440
                  441
                  442
                  443
                  444
                  445
                  446
                  447
                  448
                  449
                  450
                  451
                  452
                  453
                  454
                  455
                  456
                  457
                  458
                  459
                  460
                  461
                  462
                  463
                  464
                  465
                  466
                  467
                  468
                  469
                  470
                  471
                  472
                  473
                  474
                  475
                  476
                  477
                  478
                  479
                  480
                  481
                  482
                  483
                  484
                  485
                  486
                  487
                  488
                  489
                  490
                  491
                  492
                  493
                  494
                  495
                  496
                  497
                  498
                  499
                  500
                  501
                  502
                  503
                  504
                  505
                  506
                  507
                  508
(508 rows)

with w_1pt as (
	select * from nfiesta.v_conf_overview where estimate_type_str = '1p_total' order by estimate_conf
)
, w_1pr as (
	select
		nom.total_estimate_conf as nom__tec_id,
		denom.total_estimate_conf as denom__tec_id
	from
	w_1pt as nom
	inner join w_1pt as denom on (nom.estimation_cell = denom.estimation_cell and nom.target_variable = 1 and denom.target_variable = 2)
)
insert into nfiesta.t_estimate_conf (estimate_type, total_estimate_conf, denominator) 
select 2, nom__tec_id, denom__tec_id
from w_1pr
order by nom__tec_id, denom__tec_id;
