country;strata_set;stratum;panel;reference_year_set;target_variable;sub_population;sub_population_category;area_domain;area_domain_category;auxiliary_variable;auxiliary_variable_category;comment
CZ;CM border;NFRD12;NFRD12- 2plots;2011 - 2014;1;;;1;1;;;
CZ;CM border;NFRD12;NFRD12- 2plots;2011 - 2014;1;;;1;2;;;
CZ;CM border;NFRD12;NFRD12- 2plots;2011 - 2014;1;;;;;;;
CZ;CM border;NFRD12;NFRD12- 2plots;2011 - 2014;2;;;;;;;
CZ;CM border;NFRD12;NFRD12- 2plots;;;;;;;1;1;
CZ;CM border;NFRD12;NFRD12- 2plots;;;;;;;1;2;
CZ;CM border;NFRD7;NFRD7- 2plots;2011 - 2014;1;;;1;1;;;
CZ;CM border;NFRD7;NFRD7- 2plots;2011 - 2014;1;;;1;2;;;
CZ;CM border;NFRD7;NFRD7- 2plots;2011 - 2014;1;;;;;;;
CZ;CM border;NFRD7;NFRD7- 2plots;2011 - 2014;2;;;;;;;
CZ;CM border;NFRD7;NFRD7- 2plots;;;;;;;1;1;
CZ;CM border;NFRD7;NFRD7- 2plots;;;;;;;1;2;
CZ;MS;NFRD11;NFRD11- 1plot, s2a;2011 - 2015;1;;;1;1;;;
CZ;MS;NFRD11;NFRD11- 1plot, s2a;2011 - 2015;1;;;1;2;;;
CZ;MS;NFRD11;NFRD11- 1plot, s2a;2011 - 2015;1;;;;;;;
CZ;MS;NFRD11;NFRD11- 1plot, s2a;2011 - 2015;2;;;;;;;
CZ;MS;NFRD11;NFRD11- 1plot, s2a;;;;;;;1;1;
CZ;MS;NFRD11;NFRD11- 1plot, s2a;;;;;;;1;2;
CZ;MS;NFRD11;NFRD11- 1plot, s2b;;;;;;;1;1;
CZ;MS;NFRD11;NFRD11- 1plot, s2b;;;;;;;1;2;
CZ;MS;NFRD13;NFRD13- 1plot, s2a;2011 - 2015;1;;;1;1;;;
CZ;MS;NFRD13;NFRD13- 1plot, s2a;2011 - 2015;1;;;1;2;;;
CZ;MS;NFRD13;NFRD13- 1plot, s2a;2011 - 2015;1;;;;;;;
CZ;MS;NFRD13;NFRD13- 1plot, s2a;2011 - 2015;2;;;;;;;
CZ;MS;NFRD13;NFRD13- 1plot, s2a;;;;;;;1;1;
CZ;MS;NFRD13;NFRD13- 1plot, s2a;;;;;;;1;2;
CZ;MS;NFRD13;NFRD13- 1plot, s2b;;;;;;;1;1;
CZ;MS;NFRD13;NFRD13- 1plot, s2b;;;;;;;1;2;
CZ;MS;NFRD14;NFRD14- 1plot, s2a;2011 - 2015;1;;;1;1;;;
CZ;MS;NFRD14;NFRD14- 1plot, s2a;2011 - 2015;1;;;1;2;;;
CZ;MS;NFRD14;NFRD14- 1plot, s2a;2011 - 2015;1;;;;;;;
CZ;MS;NFRD14;NFRD14- 1plot, s2a;2011 - 2015;2;;;;;;;
CZ;MS;NFRD14;NFRD14- 1plot, s2a;;;;;;;1;1;
CZ;MS;NFRD14;NFRD14- 1plot, s2a;;;;;;;1;2;
